confirmAlert({
              
            title: 'Are you sure you want to delete Cluster name & environment',
            message: 'This action is irreversible and the cluster name environment and related hosted applications will be permanently deleted',
            buttons: [
              {
                label: 'No',
                onClick: () => {
                
                }
              },
              {
                label: 'Yes',
                onClick: () => {
                  onConfirm(toggleValue)
                  return clearTypedValue()
                }
                
              }
            ]
          });


AfMVEMjhAyN2TqGk